<?xml version="1.0" standalone="no"?>
<!DOCTYPE svg PUBLIC "-//W3C//DTD SVG 20010904//EN"
 "http://www.w3.org/TR/2001/REC-SVG-20010904/DTD/svg10.dtd">
<svg version="1.0" xmlns="http://www.w3.org/2000/svg"
 width="512.000000pt" height="512.000000pt" viewBox="0 0 512.000000 512.000000"
 preserveAspectRatio="xMidYMid meet">

<g transform="translate(0.000000,512.000000) scale(0.100000,-0.100000)"
fill="#000000" stroke="none">
<path d="M4370 4880 l0 -130 -130 0 -130 0 0 -55 0 -55 130 0 130 0 0 -135 0
-135 55 0 55 0 0 135 0 135 135 0 135 0 0 55 0 55 -135 0 -135 0 0 130 0 130
-55 0 -55 0 0 -130z"/>
<path d="M3470 4680 l0 -130 -130 0 -130 0 0 -55 0 -55 130 0 130 0 0 -135 0
-135 55 0 55 0 0 135 0 135 135 0 135 0 0 55 0 55 -135 0 -135 0 0 130 0 130
-55 0 -55 0 0 -130z"/>
<path d="M4170 4080 l0 -130 -130 0 -130 0 0 -55 0 -55 130 0 130 0 0 -135 0
-135 55 0 55 0 0 135 0 135 135 0 135 0 0 55 0 55 -135 0 -135 0 0 130 0 130
-55 0 -55 0 0 -130z"/>
<path d="M3370 3580 l0 -130 -130 0 -130 0 0 -55 0 -55 130 0 130 0 0 -135 0
-135 55 0 55 0 0 135 0 135 135 0 135 0 0 55 0 55 -135 0 -135 0 0 130 0 130
-55 0 -55 0 0 -130z"/>
<path d="M4470 3280 l0 -130 -130 0 -130 0 0 -55 0 -55 130 0 130 0 0 -135 0
-135 55 0 55 0 0 135 0 135 135 0 135 0 0 55 0 55 -135 0 -135 0 0 130 0 130
-55 0 -55 0 0 -130z"/>
<path d="M3845 2654 c-28 -29 -2 -104 61 -173 l34 -38 -38 -27 c-21 -14 -51
-39 -66 -55 l-28 -30 67 -63 c37 -35 71 -64 75 -66 19 -7 60 19 60 39 0 12 8
23 19 26 10 3 42 34 71 69 29 35 57 64 63 64 7 0 -4 10 -23 22 -19 12 -37 23
-38 24 -2 1 10 23 27 48 26 38 29 49 21 71 -5 14 -10 42 -10 61 0 39 0 39 -66
19 -65 -20 -93 -19 -145 5 -54 24 -63 24 -84 4z"/>
<path d="M4198 2659 c-36 -20 -8 -105 56 -177 l36 -39 -40 -28 c-80 -55 -166
-159 -216 -259 l-47 -95 -39 57 c-54 77 -122 146 -183 184 -27 18 -52 33 -53
34 -2 2 10 23 28 48 52 77 76 155 51 170 -5 3 -44 -3 -86 -14 -97 -25 -112
-25 -166 0 -54 24 -63 24 -84 4 -28 -29 -2 -104 61 -173 l34 -38 -41 -29 c-55
-38 -146 -139 -188 -208 -111 -185 -119 -337 -22 -436 59 -60 129 -87 267
-102 232 -24 427 39 475 154 6 16 17 27 23 24 99 -44 146 -57 241 -67 195 -21
364 18 439 101 46 51 59 98 54 187 -4 63 -12 88 -51 166 -55 110 -136 212
-218 272 -32 24 -64 45 -71 47 -7 3 0 21 21 51 53 78 77 156 52 171 -5 3 -44
-3 -86 -14 -97 -25 -112 -25 -166 0 -50 22 -57 23 -81 9z m209 -419 c4 -21 11
-30 25 -30 24 0 78 -52 78 -75 0 -30 -29 -28 -59 4 -16 17 -32 31 -35 31 -3 0
-6 -22 -6 -49 0 -44 2 -49 26 -55 74 -19 99 -103 43 -150 -17 -14 -37 -26 -44
-26 -8 0 -20 -12 -27 -27 -7 -16 -20 -28 -28 -28 -9 0 -16 11 -18 28 -2 16 -9
27 -19 27 -20 0 -83 64 -83 84 0 26 31 32 46 10 40 -58 54 -58 54 1 0 41 -3
46 -32 58 -44 19 -62 42 -62 82 0 40 18 63 62 82 19 8 32 20 32 31 0 42 38 44
47 2z m-740 -110 c4 -21 11 -30 25 -30 24 0 78 -52 78 -75 0 -30 -29 -28 -59
4 -16 17 -32 31 -35 31 -3 0 -6 -22 -6 -49 0 -44 2 -49 26 -55 74 -19 99 -103
43 -150 -17 -14 -37 -26 -44 -26 -8 0 -20 -12 -27 -27 -7 -16 -20 -28 -28 -28
-9 0 -16 11 -18 28 -2 16 -9 27 -19 27 -20 0 -83 64 -83 84 0 26 31 32 46 10
40 -58 54 -58 54 1 0 41 -3 46 -32 58 -44 19 -62 42 -62 82 0 40 18 63 62 82
19 8 32 20 32 31 0 42 38 44 47 2z"/>
<path d="M4330 2150 c-16 -16 -18 -25 -10 -40 19 -35 40 -24 40 20 0 46 -3 47
-30 20z"/>
<path d="M4410 1974 c0 -46 0 -46 23 -32 29 20 34 48 11 65 -29 21 -34 16 -34
-33z"/>
<path d="M3590 2040 c-16 -16 -18 -25 -10 -40 19 -35 40 -24 40 20 0 46 -3 47
-30 20z"/>
<path d="M3670 1864 c0 -46 0 -46 23 -32 29 20 34 48 11 65 -29 21 -34 16 -34
-33z"/>
<path d="M725 2064 c-28 -29 -2 -104 61 -173 l34 -38 -41 -29 c-55 -38 -146
-139 -188 -208 -111 -185 -119 -337 -22 -436 59 -60 129 -87 267 -102 194 -20
363 19 438 102 46 51 59 98 54 187 -4 63 -12 88 -51 166 -55 110 -136 212
-218 272 -32 24 -64 45 -71 47 -7 3 0 21 21 51 53 78 77 156 52 171 -5 3 -44
-3 -86 -14 -97 -25 -112 -25 -166 0 -54 24 -63 24 -84 4z m212 -414 c4 -21 11
-30 25 -30 24 0 78 -52 78 -75 0 -30 -29 -28 -59 4 -16 17 -32 31 -35 31 -3 0
-6 -22 -6 -49 0 -44 2 -49 26 -55 74 -19 99 -103 43 -150 -17 -14 -37 -26 -44
-26 -8 0 -20 -12 -27 -27 -7 -16 -20 -28 -28 -28 -9 0 -16 11 -18 28 -2 16 -9
27 -19 27 -20 0 -83 64 -83 84 0 26 31 32 46 10 40 -58 54 -58 54 1 0 41 -3
46 -32 58 -44 19 -62 42 -62 82 0 40 18 63 62 82 19 8 32 20 32 31 0 42 38 44
47 2z"/>
<path d="M860 1560 c-16 -16 -18 -25 -10 -40 19 -35 40 -24 40 20 0 46 -3 47
-30 20z"/>
<path d="M940 1384 c0 -46 0 -46 23 -32 29 20 34 48 11 65 -29 21 -34 16 -34
-33z"/>
<path d="M4570 1668 c-260 -46 -1462 -254 -2501 -433 -394 -68 -741 -131 -770
-139 -29 -9 -69 -16 -88 -16 -20 0 -237 -35 -483 -77 l-448 -77 0 -118 c0 -65
3 -118 8 -118 4 0 842 144 1862 320 1020 176 2043 352 2273 392 l417 72 0 118
c0 116 0 118 -22 117 -13 -1 -124 -19 -248 -41z"/>
<path d="M2321 721 c-127 -171 -231 -312 -231 -315 0 -4 212 -6 470 -6 259 0
470 2 470 6 0 10 -462 624 -470 624 -5 0 -112 -139 -239 -309z"/>
</g>
</svg>
